Entrega grupal
…
[1] "PSOE" "PP"  

siglas$siglas <- sapply(siglas$siglas, normalizar_siglas)  

siglas <-  
  siglas |>  
  distinct(siglas, .keep_all = TRUE)
# para que sólo haya un nombre por siglas para el left join

siglas

# A tibble: 505 × 2
   denominacion                                       siglas
   <chr>                                              <chr> 
 1 PARTIDO HUMANISTA                                  PH    
 2 ACCION REPUBLICANA                                 AR    
 3 PARTIDO DE LA LEY NATURAL                          PLN   
 4 EUZKO ALDERDI JELTZALEA-PARTIDO NACIONALISTA VASCO EAJPNV
 5 BERDEAK-LOS VERDES                                 BLV   
 6 LA FALANGE                                         FE    
 7 EZKER BATUA-IZQUIERDA UNIDA                        EBIU  
 8 PARTIDO OBRERO SOCIALISTA INTERNACIONALISTA        POSI  
 9 EUSKAL HERRITARROK                                 EH    
10 UNION CENTRISTA-CENTRO DEMOCRATICO Y SOCIAL        CDSUC 
# ℹ 495 more rows
…
datos_limpios 

# A tibble: 246,769 × 17
    anno mes   fecha      codigo_ccaa codigo_provincia codigo_municipio cod_mun 
   <dbl> <chr> <date>     <chr>       <chr>            <chr>            <glue>  
 1  2008 03    2008-03-01 14          01               001              14-01-0…
 2  2008 03    2008-03-01 14          01               001              14-01-0…
 3  2008 03    2008-03-01 14          01               001              14-01-0…
 4  2008 03    2008-03-01 14          01               001              14-01-0…
 5  2008 03    2008-03-01 14          01               001              14-01-0…
 6  2008 03    2008-03-01 14          01               001              14-01-0…
 7  2008 03    2008-03-01 14          01               001              14-01-0…
 8  2008 03    2008-03-01 14          01               002              14-01-0…
 9  2008 03    2008-03-01 14          01               002              14-01-0…
10  2008 03    2008-03-01 14          01               002              14-01-0…
# ℹ 246,759 more rows
# ℹ 10 more variables: numero_mesas <dbl>, censo <dbl>, participacion_1 <dbl>,
#   participacion_2 <dbl>, votos_blancos <dbl>, votos_nulos <dbl>,
#   votos_candidaturas <dbl>, denominacion <chr>, siglas <chr>, votos <dbl>
…
encuestas_limpias

# A tibble: 11,318 × 10
   date_elec  id_pollster pollster media     field_date_from field_date_to  size
   <date>     <chr>       <chr>    <chr>     <date>          <date>        <dbl>
 1 2008-03-09 pollster-49 GESOP    EL PERIÓ… 2008-03-05      2008-03-07     1000
 2 2008-03-09 pollster-49 GESOP    EL PERIÓ… 2008-03-05      2008-03-07     1000
 3 2008-03-09 pollster-49 GESOP    EL PERIÓ… 2008-03-05      2008-03-07     1000
 4 2008-03-09 pollster-49 GESOP    EL PERIÓ… 2008-03-05      2008-03-07     1000
 5 2008-03-09 pollster-49 GESOP    EL PERIÓ… 2008-03-05      2008-03-07     1000
 6 2008-03-09 pollster-49 GESOP    EL PERIÓ… 2008-03-05      2008-03-07     1000
 7 2008-03-09 pollster-49 GESOP    EL PERIÓ… 2008-03-04      2008-03-06     1200
 8 2008-03-09 pollster-49 GESOP    EL PERIÓ… 2008-03-04      2008-03-06     1200
 9 2008-03-09 pollster-49 GESOP    EL PERIÓ… 2008-03-04      2008-03-06     1200
10 2008-03-09 pollster-49 GESOP    EL PERIÓ… 2008-03-04      2008-03-06     1200
# ℹ 11,308 more rows
# ℹ 3 more variables: turnout <dbl>, partidos <chr>, est_voto_sigla <dbl>
…
¿Cuál es el partido ganador en los municipios de más de 100 000 habitantes de censo en cada una de las elecciones?

ganador <- datos_limpios |> 
  filter(censo>100000) |> 
  group_by(fecha,cod_mun) |> 
  filter(votos==max(votos)) |> 
  left_join(cod_mun, by="cod_mun") |> 
  relocate(municipio, .after=cod_mun) |>
  ungroup() |> 
  select(fecha, municipio, siglas)

ganador

# A tibble: 282 × 3
   fecha      municipio                   siglas
   <date>     <chr>                       <chr> 
 1 2008-03-01 Vitoria-Gasteiz             PSOE  
 2 2008-03-01 Albacete                    PP    
 3 2008-03-01 Alicante/Alacant            PP    
 4 2008-03-01 Elche/Elx                   PP    
 5 2008-03-01 Almería                     PP    
 6 2008-03-01 Badajoz                     PP    
 7 2008-03-01 Palma                       PP    
 8 2008-03-01 Badalona                    OTROS 
 9 2008-03-01 Barcelona                   OTROS 
10 2008-03-01 Hospitalet de Llobregat, L' OTROS 
# ℹ 272 more rows
…
maxi

# A tibble: 169 × 5
   fecha      municipio                siglas votos prc_participacion
   <date>     <chr>                    <chr>  <dbl>             <dbl>
 1 2019-04-01 Alcolea de las Peñas     PP         4                NA
 2 2008-03-01 Blasconuño de Matacabras PP        11               100
 3 2008-03-01 San Esteban de los Patos PSOE      13               100
 4 2008-03-01 Vileña                   PP        22               100
 5 2008-03-01 Villaldemiro             PP        49               100
 6 2008-03-01 Castell de Cabres        PSOE       6               100
 7 2008-03-01 Castilnuevo              PP         5               100
 8 2008-03-01 Tortuero                 PSOE      15               100
 9 2008-03-01 Valdesotos               PP        19               100
10 2008-03-01 Gallinero de Cameros     PP        14               100
# ℹ 159 more rows
…
mini

# A tibble: 30 × 5
   fecha      municipio  siglas  votos prc_participacion
   <date>     <chr>      <chr>   <dbl>             <dbl>
 1 2008-03-01 Orexa      EAJPNV      1              2.11
 2 2008-03-01 Baliarrain EAJPNV      8             16.0 
 3 2008-03-01 Lizartza   EAJPNV     43             17.0 
 4 2008-03-01 Goizueta   OTROS      99             19.5 
 5 2008-03-01 Elduain    EAJPNV     25             24.0 
 6 2008-03-01 Leaburu    EAJPNV     51             24.5 
 7 2008-03-01 Aduna      EAJPNV     31             24.6 
 8 2008-03-01 Errezil    EAJPNV    107             25.3 
 9 2008-03-01 Aulesti    EAJPNV    124             25.4 
10 2008-03-01 Belauntza  EHBILDU    24             25.4 
# ℹ 20 more rows
…
error_casa_encuestadora <- votos_partido |> 
  inner_join(int_voto_casa, by=c("year", "month", "siglas"="partidos")) |> 
  group_by(year,month,siglas, id_pollster) |> 
  mutate(est_voto_sigla=mean(est_voto_sigla)) |> 
  distinct(id_pollster, .keep_all=TRUE) |> 
  mutate(diferencia = est_voto_sigla - prop_voto ) |> 
  ungroup() |> 
  select(fecha, siglas, id_pollster, pollster, prop_voto, est_voto_sigla, diferencia)

error_casa_encuestadora

# A tibble: 880 × 7
   fecha      siglas id_pollster pollster    prop_voto est_voto_sigla diferencia
   <date>     <chr>  <chr>       <chr>           <dbl>          <dbl>      <dbl>
 1 2008-03-01 BNG    pollster-18 SIGMA DOS       0.835           0.8     -0.0354
 2 2008-03-01 BNG    pollster-51 OBRADOIRO …     0.835           1        0.165 
 3 2008-03-01 BNG    pollster-38 SONDAXE         0.835           1.1      0.265 
 4 2008-03-01 BNG    pollster-55 APPEND          0.835           0.6     -0.235 
 5 2008-03-01 BNG    pollster-19 CIS             0.835           0.9      0.0646
 6 2008-03-01 BNG    pollster-43 CELESTE-TEL     0.835           1.45     0.615 
 7 2008-03-01 BNG    pollster-57 IBERCONSUL…     0.835           1.45     0.615 
 8 2008-03-01 BNG    pollster-45 NOXA            0.835           1        0.165 
 9 2008-03-01 CIU    pollster-49 GESOP           3.09            3.93     0.837 
10 2008-03-01 CIU    pollster-48 DEMOMÉTRICA     3.09            9.5      6.41  
# ℹ 870 more rows
…
